M4/UVM/transcript
# //  Questa Sim-64
# //  Version 2021.3_1 linux_x86_64 Aug 15 2021
# //
# //  Copyright 1991-2021 Mentor Graphics Corporation
# //  All Rights Reserved.
# //
# //  QuestaSim and its associated documentation contain trade
# //  secrets and commercial or financial information that are the property of
# //  Mentor Graphics Corporation and are privileged, confidential,
# //  and exempt from disclosure under the Freedom of Information Act,
# //  5 U.S.C. Section 552. Furthermore, this information
# //  is prohibited from disclosure under the Trade Secrets Act,
# //  18 U.S.C. Section 1905.
# //
do run.do
# QuestaSim-64 vlog 2021.3_1 Compiler 2021.08 Aug 15 2021
# Start time: 18:26:14 on Jun 01,2024
# vlog -reportprogress 300 -lint dut/fifo_top.sv 
# -- Compiling module fifo_top
# 
# Top level modules:
# 	fifo_top
# End time: 18:26:14 on Jun 01,2024, Elapsed time: 0:00:00
# Errors: 0, Warnings: 0
# QuestaSim-64 vlog 2021.3_1 Compiler 2021.08 Aug 15 2021
# Start time: 18:26:14 on Jun 01,2024
# vlog -reportprogress 300 -lint dut/fifo_memory.sv 
# -- Compiling module fifo_memory
# 
# Top level modules:
# 	fifo_memory
# End time: 18:26:15 on Jun 01,2024, Elapsed time: 0:00:01
# Errors: 0, Warnings: 0
# QuestaSim-64 vlog 2021.3_1 Compiler 2021.08 Aug 15 2021
# Start time: 18:26:15 on Jun 01,2024
# vlog -reportprogress 300 -lint dut/read_pointer.sv 
# -- Compiling module read_pointer
# 
# Top level modules:
# 	read_pointer
# End time: 18:26:15 on Jun 01,2024, Elapsed time: 0:00:00
# Errors: 0, Warnings: 0
# QuestaSim-64 vlog 2021.3_1 Compiler 2021.08 Aug 15 2021
# Start time: 18:26:15 on Jun 01,2024
# vlog -reportprogress 300 -lint dut/write_pointer.sv 
# -- Compiling module write_pointer
# 
# Top level modules:
# 	write_pointer
# End time: 18:26:15 on Jun 01,2024, Elapsed time: 0:00:00
# Errors: 0, Warnings: 0
# QuestaSim-64 vlog 2021.3_1 Compiler 2021.08 Aug 15 2021
# Start time: 18:26:15 on Jun 01,2024
# vlog -reportprogress 300 -lint dut/sync.sv 
# -- Compiling module sync
# 
# Top level modules:
# 	sync
# End time: 18:26:15 on Jun 01,2024, Elapsed time: 0:00:00
# Errors: 0, Warnings: 0
# QuestaSim-64 vlog 2021.3_1 Compiler 2021.08 Aug 15 2021
# Start time: 18:26:15 on Jun 01,2024
# vlog -reportprogress 300 -f tb.f 
# -- Compiling package fifo_pkg
# -- Importing package mtiUvm.uvm_pkg (uvm-1.1d Built-in)
# ** Note: (vlog-2286) fifo_pkg.sv(3): Using implicit +incdir+/pkgs/mentor/questa/2021.3_1/questasim/uvm-1.1d/../verilog_src/uvm-1.1d/src from import uvm_pkg
# -- Compiling interface fifo_bfm
# -- Importing package fifo_pkg
# -- Compiling module top
# 
# Top level modules:
# 	top
# End time: 18:26:16 on Jun 01,2024, Elapsed time: 0:00:01
# Errors: 0, Warnings: 0
# QuestaSim-64 vopt 2021.3_1 Compiler 2021.08 Aug 15 2021
# Start time: 18:26:16 on Jun 01,2024
# vopt -reportprogress 300 top -o top_optimized "+acc" "+cover=sbfec+fifo_top(rtl)." 
# 
# Top level modules:
# 	top
# 
# Analyzing design...
# -- Loading module top
# -- Importing package fifo_pkg
# -- Importing package mtiUvm.uvm_pkg (uvm-1.1d Built-in)
# -- Loading package mtiUvm.questa_uvm_pkg
# -- Loading interface fifo_bfm
# -- Loading module fifo_top
# -- Loading module fifo_memory
# -- Loading module write_pointer
# -- Loading module read_pointer
# -- Loading module sync
# Optimizing 12 design-units (inlining 0/9 module instances):
# -- Optimizing package mtiUvm.uvm_pkg (uvm-1.1d Built-in)(fast)
# -- Optimizing package mtiUvm.questa_uvm_pkg(fast)
# -- Optimizing package fifo_pkg(fast)
# -- Optimizing module write_pointer(fast)
# -- Optimizing module fifo_top(fast)
# -- Optimizing module read_pointer(fast)
# -- Optimizing module fifo_memory(fast)
# -- Optimizing interface fifo_bfm(fast__2)
# -- Optimizing interface fifo_bfm(fast__3)
# -- Optimizing module top(fast)
# -- Optimizing module sync(fast)
# -- Optimizing interface fifo_bfm(fast)
# Optimized design name is top_optimized
# End time: 18:26:22 on Jun 01,2024, Elapsed time: 0:00:06
# Errors: 0, Warnings: 0
# vsim top_optimized -coverage 
# Start time: 18:26:22 on Jun 01,2024
# Loading sv_std.std
# Loading work.fifo_bfm(fast)
# Loading mtiUvm.uvm_pkg(fast)
# Loading work.fifo_pkg(fast)
# Loading mtiUvm.questa_uvm_pkg(fast)
# Loading work.top(fast)
# Loading work.fifo_bfm(fast__2)
# Loading work.fifo_top(fast)
# Loading work.fifo_bfm(fast__3)
# Loading work.fifo_memory(fast)
# Loading work.write_pointer(fast)
# Loading work.read_pointer(fast)
# Loading work.sync(fast)
# Loading /pkgs/mentor/questa/2021.3_1/questasim/uvm-1.1d/linux_x86_64/uvm_dpi.so
# 1
# ----------------------------------------------------------------
# UVM-1.1d
# (C) 2007-2013 Mentor Graphics Corporation
# (C) 2007-2013 Cadence Design Systems, Inc.
# (C) 2006-2013 Synopsys, Inc.
# (C) 2011-2013 Cypress Semiconductor Corp.
# ----------------------------------------------------------------
# 
#   ***********       IMPORTANT RELEASE NOTES         ************
# 
#   You are using a version of the UVM library that has been compiled
#   with `UVM_NO_DEPRECATED undefined.
#   See http://www.eda.org/svdb/view.php?id=3313 for more details.
# 
#   You are using a version of the UVM library that has been compiled
#   with `UVM_OBJECT_MUST_HAVE_CONSTRUCTOR undefined.
#   See http://www.eda.org/svdb/view.php?id=3770 for more details.
# 
#       (Specify +UVM_NO_RELNOTES to turn off this notice)
# 
# UVM_INFO verilog_src/questa_uvm_pkg-1.2/src/questa_uvm_pkg.sv(277) @ 0: reporter [Questa UVM] QUESTA_UVM-1.2.3
# UVM_INFO verilog_src/questa_uvm_pkg-1.2/src/questa_uvm_pkg.sv(278) @ 0: reporter [Questa UVM]  questa_uvm::init(+struct)
# UVM_INFO @ 0: reporter [RNTST] Running test my_first_test...
# UVM_INFO @ 0: reporter [UVMTOP] UVM testbench topology:
# --------------------------------------------------------------
# Name                       Type                    Size  Value
# --------------------------------------------------------------
# uvm_test_top               my_first_test           -     @471 
#   environment_h            fifo_environment        -     @478 
#     agent_h                fifo_agent              -     @485 
#       driver_rd_h          fifo_read_driver        -     @755 
#         rsp_port           uvm_analysis_port       -     @770 
#         seq_item_port      uvm_seq_item_pull_port  -     @762 
#       driver_wr_h          fifo_write_driver       -     @732 
#         rsp_port           uvm_analysis_port       -     @747 
#         seq_item_port      uvm_seq_item_pull_port  -     @739 
#       monitor_rd_h         fifo_read_monitor       -     @725 
#         monitor_port_rd    uvm_analysis_port       -     @781 
#       monitor_wr_h         fifo_write_monitor      -     @718 
#         monitor_port_wr    uvm_analysis_port       -     @790 
#       sequencer_rd_h       fifo_sequencer          -     @609 
#         rsp_export         uvm_analysis_export     -     @616 
#         seq_item_export    uvm_seq_item_pull_imp   -     @710 
#         arbitration_queue  array                   0     -    
#         lock_queue         array                   0     -    
#         num_last_reqs      integral                32    'd1  
#         num_last_rsps      integral                32    'd1  
#       sequencer_wr_h       fifo_sequencer          -     @500 
#         rsp_export         uvm_analysis_export     -     @507 
#         seq_item_export    uvm_seq_item_pull_imp   -     @601 
#         arbitration_queue  array                   0     -    
#         lock_queue         array                   0     -    
#         num_last_reqs      integral                32    'd1  
#         num_last_rsps      integral                32    'd1  
#     scoreboard_h           fifo_scoreboard         -     @492 
#       scoreboard_port      uvm_analysis_imp        -     @808 
# --------------------------------------------------------------
# 
# UVM_INFO classes/sequence.sv(18) @ 0: uvm_test_top.environment_h.agent_h.sequencer_wr_h@@write_sequence_h [FIFO_WRITE_SEQ] Starting write sequence
# UVM_INFO classes/sequence.sv(59) @ 0: uvm_test_top.environment_h.agent_h.sequencer_rd_h@@read_sequence_h [FIFO_READ_SEQ] Starting read sequence
# UVM_INFO classes/monitor.sv(132) @ 6: uvm_test_top.environment_h.agent_h.monitor_wr_h [fifo_write_monitor] Monitor mon_tx_wr 	|  wr_en: x  |  data_in: xx  |  full: x  |  empty: x  |  half: x
# UVM_INFO classes/monitor.sv(76) @ 16: uvm_test_top.environment_h.agent_h.monitor_rd_h [fifo_read_monitor] Monitor mon_tx_rd 	|  rd_en: x  |  data_out: xx  |  full: x  |  empty: x  |  half: x
# UVM_INFO classes/monitor.sv(132) @ 38: uvm_test_top.environment_h.agent_h.monitor_wr_h [fifo_write_monitor] Monitor mon_tx_wr 	|  wr_en: x  |  data_in: xx  |  full: 0  |  empty: 1  |  half: 0
# UVM_INFO classes/monitor.sv(76) @ 48: uvm_test_top.environment_h.agent_h.monitor_rd_h [fifo_read_monitor] Monitor mon_tx_rd 	|  rd_en: x  |  data_out: xx  |  full: 0  |  empty: 1  |  half: 0
# UVM_INFO classes/monitor.sv(132) @ 70: uvm_test_top.environment_h.agent_h.monitor_wr_h [fifo_write_monitor] Monitor mon_tx_wr 	|  wr_en: 0  |  data_in: xx  |  full: 0  |  empty: 1  |  half: 0
# UVM_INFO classes/monitor.sv(76) @ 80: uvm_test_top.environment_h.agent_h.monitor_rd_h [fifo_read_monitor] Monitor mon_tx_rd 	|  rd_en: 0  |  data_out: xx  |  full: 0  |  empty: 1  |  half: 0
# UVM_INFO classes/sequence.sv(32) @ 80: uvm_test_top.environment_h.agent_h.sequencer_wr_h@@write_sequence_h [GENERATE] Writing: 1 or Reading: 0
# Data in: 14, Data out: xx
# Full: x, Half: x, Empty: x
# UVM_INFO classes/sequence.sv(70) @ 80: uvm_test_top.environment_h.agent_h.sequencer_rd_h@@read_sequence_h [GENERATE] Writing: 0 or Reading: 1
# Data in: 88, Data out: xx
# Full: x, Half: x, Empty: x
# UVM_INFO classes/driver.sv(50) @ 102: uvm_test_top.environment_h.agent_h.driver_wr_h [fifo_write_driver] Driver tx_wr 		|  wr_en: 1  |  rd_en: 0  |  data_in: 14  
# UVM_INFO classes/monitor.sv(132) @ 102: uvm_test_top.environment_h.agent_h.monitor_wr_h [fifo_write_monitor] Monitor mon_tx_wr 	|  wr_en: 0  |  data_in: xx  |  full: 0  |  empty: 1  |  half: 0
# UVM_INFO classes/sequence.sv(32) @ 102: uvm_test_top.environment_h.agent_h.sequencer_wr_h@@write_sequence_h [GENERATE] Writing: 1 or Reading: 0
# Data in: af, Data out: xx
# Full: x, Half: x, Empty: x
# UVM_INFO classes/driver.sv(95) @ 112: uvm_test_top.environment_h.agent_h.driver_rd_h [fifo_read_driver] Driver tx_rd 		|  wr_en: 0  |  rd_en: 1  |  data_in: 88  
# UVM_INFO classes/monitor.sv(76) @ 112: uvm_test_top.environment_h.agent_h.monitor_rd_h [fifo_read_monitor] Monitor mon_tx_rd 	|  rd_en: 0  |  data_out: xx  |  full: 0  |  empty: 1  |  half: 0
# UVM_INFO classes/sequence.sv(70) @ 112: uvm_test_top.environment_h.agent_h.sequencer_rd_h@@read_sequence_h [GENERATE] Writing: 0 or Reading: 1
# Data in: c8, Data out: xx
# Full: x, Half: x, Empty: x
# UVM_INFO classes/driver.sv(50) @ 134: uvm_test_top.environment_h.agent_h.driver_wr_h [fifo_write_driver] Driver tx_wr 		|  wr_en: 1  |  rd_en: 0  |  data_in: af  
# UVM_INFO classes/monitor.sv(132) @ 134: uvm_test_top.environment_h.agent_h.monitor_wr_h [fifo_write_monitor] Monitor mon_tx_wr 	|  wr_en: 1  |  data_in: 14  |  full: 0  |  empty: 1  |  half: 0
# UVM_INFO classes/sequence.sv(32) @ 134: uvm_test_top.environment_h.agent_h.sequencer_wr_h@@write_sequence_h [GENERATE] Writing: 1 or Reading: 0
# Data in: ce, Data out: xx
# Full: x, Half: x, Empty: x
# UVM_INFO classes/driver.sv(95) @ 144: uvm_test_top.environment_h.agent_h.driver_rd_h [fifo_read_driver] Driver tx_rd 		|  wr_en: 0  |  rd_en: 1  |  data_in: c8  
# UVM_INFO classes/monitor.sv(76) @ 144: uvm_test_top.environment_h.agent_h.monitor_rd_h [fifo_read_monitor] Monitor mon_tx_rd 	|  rd_en: 1  |  data_out: xx  |  full: 0  |  empty: 1  |  half: 0
# UVM_INFO classes/sequence.sv(70) @ 144: uvm_test_top.environment_h.agent_h.sequencer_rd_h@@read_sequence_h [GENERATE] Writing: 0 or Reading: 1
# Data in: 6c, Data out: xx
# Full: x, Half: x, Empty: x
# UVM_INFO classes/driver.sv(50) @ 166: uvm_test_top.environment_h.agent_h.driver_wr_h [fifo_write_driver] Driver tx_wr 		|  wr_en: 1  |  rd_en: 0  |  data_in: ce  
# UVM_INFO classes/monitor.sv(132) @ 166: uvm_test_top.environment_h.agent_h.monitor_wr_h [fifo_write_monitor] Monitor mon_tx_wr 	|  wr_en: 1  |  data_in: af  |  full: 0  |  empty: 1  |  half: 0
# UVM_INFO classes/sequence.sv(32) @ 166: uvm_test_top.environment_h.agent_h.sequencer_wr_h@@write_sequence_h [GENERATE] Writing: 1 or Reading: 0
# Data in: df, Data out: xx
# Full: x, Half: x, Empty: x
# UVM_INFO classes/driver.sv(95) @ 176: uvm_test_top.environment_h.agent_h.driver_rd_h [fifo_read_driver] Driver tx_rd 		|  wr_en: 0  |  rd_en: 1  |  data_in: 6c  
# UVM_INFO classes/monitor.sv(76) @ 176: uvm_test_top.environment_h.agent_h.monitor_rd_h [fifo_read_monitor] Monitor mon_tx_rd 	|  rd_en: 1  |  data_out: xx  |  full: 0  |  empty: 1  |  half: 0
# UVM_INFO classes/sequence.sv(70) @ 176: uvm_test_top.environment_h.agent_h.sequencer_rd_h@@read_sequence_h [GENERATE] Writing: 0 or Reading: 1
# Data in: a5, Data out: xx
# Full: x, Half: x, Empty: x
# UVM_INFO classes/driver.sv(50) @ 198: uvm_test_top.environment_h.agent_h.driver_wr_h [fifo_write_driver] Driver tx_wr 		|  wr_en: 1  |  rd_en: 0  |  data_in: df  
# UVM_INFO classes/monitor.sv(132) @ 198: uvm_test_top.environment_h.agent_h.monitor_wr_h [fifo_write_monitor] Monitor mon_tx_wr 	|  wr_en: 1  |  data_in: ce  |  full: 0  |  empty: 1  |  half: 0
# UVM_INFO classes/sequence.sv(32) @ 198: uvm_test_top.environment_h.agent_h.sequencer_wr_h@@write_sequence_h [GENERATE] Writing: 1 or Reading: 0
# Data in: 40, Data out: xx
# Full: x, Half: x, Empty: x
# UVM_INFO classes/driver.sv(95) @ 208: uvm_test_top.environment_h.agent_h.driver_rd_h [fifo_read_driver] Driver tx_rd 		|  wr_en: 0  |  rd_en: 1  |  data_in: a5  
# UVM_INFO classes/monitor.sv(76) @ 208: uvm_test_top.environment_h.agent_h.monitor_rd_h [fifo_read_monitor] Monitor mon_tx_rd 	|  rd_en: 1  |  data_out: xx  |  full: 0  |  empty: 1  |  half: 0
# UVM_INFO classes/sequence.sv(70) @ 208: uvm_test_top.environment_h.agent_h.sequencer_rd_h@@read_sequence_h [GENERATE] Writing: 0 or Reading: 1
# Data in: 7e, Data out: xx
# Full: x, Half: x, Empty: x
# UVM_INFO classes/driver.sv(50) @ 230: uvm_test_top.environment_h.agent_h.driver_wr_h [fifo_write_driver] Driver tx_wr 		|  wr_en: 1  |  rd_en: 0  |  data_in: 40  
# UVM_INFO classes/monitor.sv(132) @ 230: uvm_test_top.environment_h.agent_h.monitor_wr_h [fifo_write_monitor] Monitor mon_tx_wr 	|  wr_en: 1  |  data_in: df  |  full: 0  |  empty: 0  |  half: 0
# UVM_INFO classes/sequence.sv(32) @ 230: uvm_test_top.environment_h.agent_h.sequencer_wr_h@@write_sequence_h [GENERATE] Writing: 1 or Reading: 0
# Data in: b3, Data out: xx
# Full: x, Half: x, Empty: x
# UVM_INFO classes/driver.sv(95) @ 240: uvm_test_top.environment_h.agent_h.driver_rd_h [fifo_read_driver] Driver tx_rd 		|  wr_en: 0  |  rd_en: 1  |  data_in: 7e  
# UVM_INFO classes/monitor.sv(76) @ 240: uvm_test_top.environment_h.agent_h.monitor_rd_h [fifo_read_monitor] Monitor mon_tx_rd 	|  rd_en: 1  |  data_out: xx  |  full: 0  |  empty: 0  |  half: 0
# UVM_INFO classes/sequence.sv(70) @ 240: uvm_test_top.environment_h.agent_h.sequencer_rd_h@@read_sequence_h [GENERATE] Writing: 0 or Reading: 1
# Data in: d9, Data out: xx
# Full: x, Half: x, Empty: x
# UVM_INFO classes/driver.sv(50) @ 262: uvm_test_top.environment_h.agent_h.driver_wr_h [fifo_write_driver] Driver tx_wr 		|  wr_en: 1  |  rd_en: 0  |  data_in: b3  
# UVM_INFO classes/monitor.sv(132) @ 262: uvm_test_top.environment_h.agent_h.monitor_wr_h [fifo_write_monitor] Monitor mon_tx_wr 	|  wr_en: 1  |  data_in: 40  |  full: 0  |  empty: 0  |  half: 0
# UVM_INFO classes/sequence.sv(32) @ 262: uvm_test_top.environment_h.agent_h.sequencer_wr_h@@write_sequence_h [GENERATE] Writing: 1 or Reading: 0
# Data in: 32, Data out: xx
# Full: x, Half: x, Empty: x
# UVM_INFO classes/driver.sv(95) @ 272: uvm_test_top.environment_h.agent_h.driver_rd_h [fifo_read_driver] Driver tx_rd 		|  wr_en: 0  |  rd_en: 1  |  data_in: d9  
# UVM_INFO classes/monitor.sv(76) @ 272: uvm_test_top.environment_h.agent_h.monitor_rd_h [fifo_read_monitor] Monitor mon_tx_rd 	|  rd_en: 1  |  data_out: 14  |  full: 0  |  empty: 0  |  half: 0
# UVM_INFO classes/sequence.sv(70) @ 272: uvm_test_top.environment_h.agent_h.sequencer_rd_h@@read_sequence_h [GENERATE] Writing: 0 or Reading: 1
# Data in: b6, Data out: xx
# Full: x, Half: x, Empty: x
# UVM_INFO classes/driver.sv(50) @ 294: uvm_test_top.environment_h.agent_h.driver_wr_h [fifo_write_driver] Driver tx_wr 		|  wr_en: 1  |  rd_en: 0  |  data_in: 32  
# UVM_INFO classes/monitor.sv(132) @ 294: uvm_test_top.environment_h.agent_h.monitor_wr_h [fifo_write_monitor] Monitor mon_tx_wr 	|  wr_en: 1  |  data_in: b3  |  full: 0  |  empty: 0  |  half: 0
# UVM_INFO classes/sequence.sv(32) @ 294: uvm_test_top.environment_h.agent_h.sequencer_wr_h@@write_sequence_h [GENERATE] Writing: 1 or Reading: 0
# Data in: e3, Data out: xx
# Full: x, Half: x, Empty: x
# UVM_INFO classes/driver.sv(95) @ 304: uvm_test_top.environment_h.agent_h.driver_rd_h [fifo_read_driver] Driver tx_rd 		|  wr_en: 0  |  rd_en: 1  |  data_in: b6  
# UVM_INFO classes/monitor.sv(76) @ 304: uvm_test_top.environment_h.agent_h.monitor_rd_h [fifo_read_monitor] Monitor mon_tx_rd 	|  rd_en: 1  |  data_out: af  |  full: 0  |  empty: 0  |  half: 0
# UVM_INFO classes/sequence.sv(70) @ 304: uvm_test_top.environment_h.agent_h.sequencer_rd_h@@read_sequence_h [GENERATE] Writing: 0 or Reading: 1
# Data in: 90, Data out: xx
# Full: x, Half: x, Empty: x
# UVM_INFO classes/driver.sv(50) @ 326: uvm_test_top.environment_h.agent_h.driver_wr_h [fifo_write_driver] Driver tx_wr 		|  wr_en: 1  |  rd_en: 0  |  data_in: e3  
# UVM_INFO classes/monitor.sv(132) @ 326: uvm_test_top.environment_h.agent_h.monitor_wr_h [fifo_write_monitor] Monitor mon_tx_wr 	|  wr_en: 1  |  data_in: 32  |  full: 0  |  empty: 0  |  half: 0
# UVM_INFO classes/sequence.sv(32) @ 326: uvm_test_top.environment_h.agent_h.sequencer_wr_h@@write_sequence_h [GENERATE] Writing: 1 or Reading: 0
# Data in: 25, Data out: xx
# Full: x, Half: x, Empty: x
# UVM_INFO classes/driver.sv(95) @ 336: uvm_test_top.environment_h.agent_h.driver_rd_h [fifo_read_driver] Driver tx_rd 		|  wr_en: 0  |  rd_en: 1  |  data_in: 90  
# UVM_INFO classes/monitor.sv(76) @ 336: uvm_test_top.environment_h.agent_h.monitor_rd_h [fifo_read_monitor] Monitor mon_tx_rd 	|  rd_en: 1  |  data_out: ce  |  full: 0  |  empty: 0  |  half: 0
# UVM_INFO classes/sequence.sv(70) @ 336: uvm_test_top.environment_h.agent_h.sequencer_rd_h@@read_sequence_h [GENERATE] Writing: 0 or Reading: 1
# Data in: 4d, Data out: xx
# Full: x, Half: x, Empty: x
# UVM_INFO classes/driver.sv(50) @ 358: uvm_test_top.environment_h.agent_h.driver_wr_h [fifo_write_driver] Driver tx_wr 		|  wr_en: 1  |  rd_en: 0  |  data_in: 25  
# UVM_INFO classes/monitor.sv(132) @ 358: uvm_test_top.environment_h.agent_h.monitor_wr_h [fifo_write_monitor] Monitor mon_tx_wr 	|  wr_en: 1  |  data_in: e3  |  full: 0  |  empty: 0  |  half: 0
# UVM_INFO classes/sequence.sv(32) @ 358: uvm_test_top.environment_h.agent_h.sequencer_wr_h@@write_sequence_h [GENERATE] Writing: 1 or Reading: 0
# Data in: 5d, Data out: xx
# Full: x, Half: x, Empty: x
# UVM_INFO classes/driver.sv(95) @ 368: uvm_test_top.environment_h.agent_h.driver_rd_h [fifo_read_driver] Driver tx_rd 		|  wr_en: 0  |  rd_en: 1  |  data_in: 4d  
# UVM_INFO classes/monitor.sv(76) @ 368: uvm_test_top.environment_h.agent_h.monitor_rd_h [fifo_read_monitor] Monitor mon_tx_rd 	|  rd_en: 1  |  data_out: df  |  full: 0  |  empty: 0  |  half: 0
# UVM_INFO classes/sequence.sv(70) @ 368: uvm_test_top.environment_h.agent_h.sequencer_rd_h@@read_sequence_h [GENERATE] Writing: 0 or Reading: 1
# Data in: 0f, Data out: xx
# Full: x, Half: x, Empty: x
# UVM_INFO classes/driver.sv(50) @ 390: uvm_test_top.environment_h.agent_h.driver_wr_h [fifo_write_driver] Driver tx_wr 		|  wr_en: 1  |  rd_en: 0  |  data_in: 5d  
# UVM_INFO classes/monitor.sv(132) @ 390: uvm_test_top.environment_h.agent_h.monitor_wr_h [fifo_write_monitor] Monitor mon_tx_wr 	|  wr_en: 1  |  data_in: 25  |  full: 0  |  empty: 0  |  half: 0
# UVM_INFO classes/sequence.sv(32) @ 390: uvm_test_top.environment_h.agent_h.sequencer_wr_h@@write_sequence_h [GENERATE] Writing: 1 or Reading: 0
# Data in: f2, Data out: xx
# Full: x, Half: x, Empty: x
# UVM_INFO classes/driver.sv(95) @ 400: uvm_test_top.environment_h.agent_h.driver_rd_h [fifo_read_driver] Driver tx_rd 		|  wr_en: 0  |  rd_en: 1  |  data_in: 0f  
# UVM_INFO classes/monitor.sv(76) @ 400: uvm_test_top.environment_h.agent_h.monitor_rd_h [fifo_read_monitor] Monitor mon_tx_rd 	|  rd_en: 1  |  data_out: 40  |  full: 0  |  empty: 0  |  half: 0
# UVM_INFO classes/sequence.sv(70) @ 400: uvm_test_top.environment_h.agent_h.sequencer_rd_h@@read_sequence_h [GENERATE] Writing: 0 or Reading: 1
# Data in: 50, Data out: xx
# Full: x, Half: x, Empty: x
# UVM_INFO classes/driver.sv(50) @ 422: uvm_test_top.environment_h.agent_h.driver_wr_h [fifo_write_driver] Driver tx_wr 		|  wr_en: 1  |  rd_en: 0  |  data_in: f2  
# UVM_INFO classes/monitor.sv(132) @ 422: uvm_test_top.environment_h.agent_h.monitor_wr_h [fifo_write_monitor] Monitor mon_tx_wr 	|  wr_en: 1  |  data_in: 5d  |  full: 0  |  empty: 0  |  half: 0
# UVM_INFO classes/sequence.sv(32) @ 422: uvm_test_top.environment_h.agent_h.sequencer_wr_h@@write_sequence_h [GENERATE] Writing: 1 or Reading: 0
# Data in: 06, Data out: xx
# Full: x, Half: x, Empty: x
# UVM_INFO classes/driver.sv(95) @ 432: uvm_test_top.environment_h.agent_h.driver_rd_h [fifo_read_driver] Driver tx_rd 		|  wr_en: 0  |  rd_en: 1  |  data_in: 50  
# UVM_INFO classes/monitor.sv(76) @ 432: uvm_test_top.environment_h.agent_h.monitor_rd_h [fifo_read_monitor] Monitor mon_tx_rd 	|  rd_en: 1  |  data_out: b3  |  full: 0  |  empty: 0  |  half: 0
# UVM_INFO classes/sequence.sv(70) @ 432: uvm_test_top.environment_h.agent_h.sequencer_rd_h@@read_sequence_h [GENERATE] Writing: 0 or Reading: 1
# Data in: e6, Data out: xx
# Full: x, Half: x, Empty: x
# UVM_INFO classes/driver.sv(50) @ 454: uvm_test_top.environment_h.agent_h.driver_wr_h [fifo_write_driver] Driver tx_wr 		|  wr_en: 1  |  rd_en: 0  |  data_in: 06  
# UVM_INFO classes/monitor.sv(132) @ 454: uvm_test_top.environment_h.agent_h.monitor_wr_h [fifo_write_monitor] Monitor mon_tx_wr 	|  wr_en: 1  |  data_in: f2  |  full: 0  |  empty: 0  |  half: 0
# UVM_INFO classes/sequence.sv(32) @ 454: uvm_test_top.environment_h.agent_h.sequencer_wr_h@@write_sequence_h [GENERATE] Writing: 1 or Reading: 0
# Data in: ff, Data out: xx
# Full: x, Half: x, Empty: x
# UVM_INFO classes/driver.sv(95) @ 464: uvm_test_top.environment_h.agent_h.driver_rd_h [fifo_read_driver] Driver tx_rd 		|  wr_en: 0  |  rd_en: 1  |  data_in: e6  
# UVM_INFO classes/monitor.sv(76) @ 464: uvm_test_top.environment_h.agent_h.monitor_rd_h [fifo_read_monitor] Monitor mon_tx_rd 	|  rd_en: 1  |  data_out: 32  |  full: 0  |  empty: 0  |  half: 0
# UVM_INFO classes/sequence.sv(70) @ 464: uvm_test_top.environment_h.agent_h.sequencer_rd_h@@read_sequence_h [GENERATE] Writing: 0 or Reading: 1
# Data in: 26, Data out: xx
# Full: x, Half: x, Empty: x
# UVM_INFO classes/driver.sv(50) @ 486: uvm_test_top.environment_h.agent_h.driver_wr_h [fifo_write_driver] Driver tx_wr 		|  wr_en: 1  |  rd_en: 0  |  data_in: ff  
# UVM_INFO classes/monitor.sv(132) @ 486: uvm_test_top.environment_h.agent_h.monitor_wr_h [fifo_write_monitor] Monitor mon_tx_wr 	|  wr_en: 1  |  data_in: 06  |  full: 0  |  empty: 0  |  half: 0
# UVM_INFO classes/sequence.sv(32) @ 486: uvm_test_top.environment_h.agent_h.sequencer_wr_h@@write_sequence_h [GENERATE] Writing: 1 or Reading: 0
# Data in: e0, Data out: xx
# Full: x, Half: x, Empty: x
# UVM_INFO classes/driver.sv(95) @ 496: uvm_test_top.environment_h.agent_h.driver_rd_h [fifo_read_driver] Driver tx_rd 		|  wr_en: 0  |  rd_en: 1  |  data_in: 26  
# UVM_INFO classes/monitor.sv(76) @ 496: uvm_test_top.environment_h.agent_h.monitor_rd_h [fifo_read_monitor] Monitor mon_tx_rd 	|  rd_en: 1  |  data_out: e3  |  full: 0  |  empty: 0  |  half: 0
# UVM_INFO classes/sequence.sv(70) @ 496: uvm_test_top.environment_h.agent_h.sequencer_rd_h@@read_sequence_h [GENERATE] Writing: 0 or Reading: 1
# Data in: 3a, Data out: xx
# Full: x, Half: x, Empty: x
# UVM_INFO classes/driver.sv(50) @ 518: uvm_test_top.environment_h.agent_h.driver_wr_h [fifo_write_driver] Driver tx_wr 		|  wr_en: 1  |  rd_en: 0  |  data_in: e0  
# UVM_INFO classes/monitor.sv(132) @ 518: uvm_test_top.environment_h.agent_h.monitor_wr_h [fifo_write_monitor] Monitor mon_tx_wr 	|  wr_en: 1  |  data_in: ff  |  full: 0  |  empty: 0  |  half: 0
# UVM_INFO classes/sequence.sv(32) @ 518: uvm_test_top.environment_h.agent_h.sequencer_wr_h@@write_sequence_h [GENERATE] Writing: 1 or Reading: 0
# Data in: fe, Data out: xx
# Full: x, Half: x, Empty: x
# UVM_INFO classes/driver.sv(95) @ 528: uvm_test_top.environment_h.agent_h.driver_rd_h [fifo_read_driver] Driver tx_rd 		|  wr_en: 0  |  rd_en: 1  |  data_in: 3a  
# UVM_INFO classes/monitor.sv(76) @ 528: uvm_test_top.environment_h.agent_h.monitor_rd_h [fifo_read_monitor] Monitor mon_tx_rd 	|  rd_en: 1  |  data_out: 25  |  full: 0  |  empty: 0  |  half: 0
# UVM_INFO classes/sequence.sv(70) @ 528: uvm_test_top.environment_h.agent_h.sequencer_rd_h@@read_sequence_h [GENERATE] Writing: 0 or Reading: 1
# Data in: 01, Data out: xx
# Full: x, Half: x, Empty: x
# UVM_INFO classes/driver.sv(50) @ 550: uvm_test_top.environment_h.agent_h.driver_wr_h [fifo_write_driver] Driver tx_wr 		|  wr_en: 1  |  rd_en: 0  |  data_in: fe  
# UVM_INFO classes/monitor.sv(132) @ 550: uvm_test_top.environment_h.agent_h.monitor_wr_h [fifo_write_monitor] Monitor mon_tx_wr 	|  wr_en: 1  |  data_in: e0  |  full: 0  |  empty: 0  |  half: 0
# UVM_INFO classes/sequence.sv(32) @ 550: uvm_test_top.environment_h.agent_h.sequencer_wr_h@@write_sequence_h [GENERATE] Writing: 1 or Reading: 0
# Data in: 20, Data out: xx
# Full: x, Half: x, Empty: x
# UVM_INFO classes/driver.sv(95) @ 560: uvm_test_top.environment_h.agent_h.driver_rd_h [fifo_read_driver] Driver tx_rd 		|  wr_en: 0  |  rd_en: 1  |  data_in: 01  
# UVM_INFO classes/monitor.sv(76) @ 560: uvm_test_top.environment_h.agent_h.monitor_rd_h [fifo_read_monitor] Monitor mon_tx_rd 	|  rd_en: 1  |  data_out: 5d  |  full: 0  |  empty: 0  |  half: 0
# UVM_INFO classes/sequence.sv(70) @ 560: uvm_test_top.environment_h.agent_h.sequencer_rd_h@@read_sequence_h [GENERATE] Writing: 0 or Reading: 1
# Data in: 54, Data out: xx
# Full: x, Half: x, Empty: x
# UVM_INFO classes/driver.sv(50) @ 582: uvm_test_top.environment_h.agent_h.driver_wr_h [fifo_write_driver] Driver tx_wr 		|  wr_en: 1  |  rd_en: 0  |  data_in: 20  
